<?xml version="1.0" standalone="no"?>
<!DOCTYPE svg PUBLIC "-//W3C//DTD SVG 20010904//EN"
 "http://www.w3.org/TR/2001/REC-SVG-20010904/DTD/svg10.dtd">
<svg version="1.0" xmlns="http://www.w3.org/2000/svg"
 width="260.000000pt" height="260.000000pt" viewBox="0 0 260.000000 260.000000"
 preserveAspectRatio="xMidYMid meet">
<metadata>
Created by potrace 1.11, written by Peter Selinger 2001-2013
</metadata>
<g transform="translate(0.000000,260.000000) scale(0.100000,-0.100000)"
fill="#000000" stroke="none">
<path d="M1150 2593 c-358 -55 -638 -208 -851 -466 -204 -247 -302 -532 -294
-857 2 -80 6 -156 9 -170 4 -14 9 -38 12 -55 26 -147 99 -324 195 -470 65 -99
248 -282 349 -350 144 -97 301 -162 481 -201 117 -25 381 -25 499 0 547 117
945 532 1034 1077 14 84 15 327 1 399 -30 164 -86 323 -157 445 -203 347 -530
572 -933 642 -37 6 -311 11 -345 6z m345 -169 c233 -43 431 -144 599 -308 131
-128 215 -257 276 -425 52 -141 64 -213 65 -371 0 -154 -5 -209 -30 -305 -93
-357 -354 -649 -700 -781 -136 -52 -255 -73 -409 -72 -226 1 -431 62 -616 181
-223 144 -413 399 -475 637 -2 8 -11 42 -20 75 -23 86 -28 338 -10 439 73 402
340 722 730 877 157 62 414 85 590 53z"/>
<path d="M1695 1756 c-33 -7 -79 -22 -102 -34 -82 -43 -133 -138 -119 -223 16
-99 62 -142 251 -235 162 -79 176 -88 193 -121 33 -62 -2 -141 -81 -181 -90
-47 -249 -30 -312 34 -32 31 -53 93 -47 137 2 16 -5 17 -56 14 l-57 -4 -1 -41
c-2 -91 50 -183 126 -222 115 -59 304 -60 418 -1 128 66 182 215 118 325 -34
58 -56 73 -239 160 -166 79 -197 105 -197 163 0 88 67 136 191 136 125 0 200
-49 215 -143 l6 -35 56 5 c62 5 64 8 50 74 -12 54 -61 121 -111 150 -80 47
-196 63 -302 42z"/>
<path d="M651 1648 c-13 -57 -24 -113 -27 -125 -2 -13 -6 -33 -8 -45 -3 -13
-18 -88 -35 -168 -17 -80 -46 -216 -64 -303 l-34 -158 266 3 c255 3 268 4 312
26 134 66 206 226 153 337 -17 37 -79 95 -101 95 -23 0 -14 18 15 28 125 44
166 247 69 344 -54 54 -114 66 -329 68 l-195 1 -22 -103z m418 -12 c49 -15 73
-58 68 -124 -6 -81 -55 -124 -158 -138 -43 -6 -204 -9 -255 -5 -9 1 11 116 41
241 2 8 4 21 4 28 1 11 30 13 134 11 72 -1 147 -7 166 -13z m-26 -394 c36 -16
47 -27 57 -57 29 -89 -23 -187 -117 -217 -57 -18 -353 -26 -353 -9 0 16 59
291 64 299 2 4 72 6 154 5 126 -1 157 -4 195 -21z"/>
</g>
</svg>
